-------------------------------------------------------------------------------
Test set: net.stawrul.OrdersServiceTest
-------------------------------------------------------------------------------
Tests run: 5, Failures: 0, Errors: 0, Skipped: 0, Time elapsed: 0.631 sec - in net.stawrul.OrdersServiceTest
